{
  "project_info": {
    "project_number": "1098888353224",
    "firebase_url": "https://dimp-a0abe.firebaseio.com",
    "project_id": "dimp-a0abe",
    "storage_bucket": "dimp-a0abe.appspot.com"
  },
  "client": [
    {
      "client_info": {
        "mobilesdk_app_id": "1:1098888353224:android:4969cca5ffc3140a",
        "android_client_info": {
          "package_name": "mami.dimoapp"
        }
      },
      "oauth_client": [
        {
          "client_id": "1098888353224-tntc42va4voorgvi469i1qqmg1kl8uck.apps.googleusercontent.com",
          "client_type": 1,
          "android_info": {
            "package_name": "mami.dimoapp",
            "certificate_hash": "c8e995ff4e0b89ee5d3a77b93e26eb86352d94a4"
          }
        },
        {
          "client_id": "1098888353224-6j17rk0kdksh57pr8em56f0fhfs4ni12.apps.googleusercontent.com",
          "client_type": 3
        }
      ],
      "api_key": [
        {
          "current_key": "AIzaSyBOhHQD4h40Tt_tkTZc-w4m7Xy-WbaUt4E"
        }
      ],
      "services": {
        "appinvite_service": {
          "other_platform_oauth_client": [
            {
              "client_id": "1098888353224-6j17rk0kdksh57pr8em56f0fhfs4ni12.apps.googleusercontent.com",
              "client_type": 3
            }
          ]
        }
      }
    },
    {
      "client_info": {
        "mobilesdk_app_id": "1:1098888353224:android:4195776ad9498bfa",
        "android_client_info": {
          "package_name": "mami.dimoapp2"
        }
      },
      "oauth_client": [
        {
          "client_id": "1098888353224-lpgjnjpec8mpl2eukd6u2tidpo9ig7f2.apps.googleusercontent.com",
          "client_type": 1,
          "android_info": {
            "package_name": "mami.dimoapp2",
            "certificate_hash": "48eabcee3b4674b51765f77e7483dd064d159ac3"
          }
        },
        {
          "client_id": "1098888353224-6j17rk0kdksh57pr8em56f0fhfs4ni12.apps.googleusercontent.com",
          "client_type": 3
        }
      ],
      "api_key": [
        {
          "current_key": "AIzaSyBOhHQD4h40Tt_tkTZc-w4m7Xy-WbaUt4E"
        }
      ],
      "services": {
        "appinvite_service": {
          "other_platform_oauth_client": [
            {
              "client_id": "1098888353224-6j17rk0kdksh57pr8em56f0fhfs4ni12.apps.googleusercontent.com",
              "client_type": 3
            }
          ]
        }
      }
    }
  ],
  "configuration_version": "1"
}